[gd_scene load_steps=3 format=2]

[ext_resource path="res://HexEffects.tres" type="Material" id=1]
[ext_resource path="res://Graphics/steampunkWallpaper1.png" type="Texture" id=2]

[node name="HexTest" type="Sprite"]

material = ExtResource( 1 )
position = Vector2( 963.119, 540.315 )
texture = ExtResource( 2 )
_sections_unfolded = [ "Material", "Transform", "Z Index" ]


