; Engine configuration file.
; It's best edited using the editor UI and not directly,
; since the parameters that go here are not all obvious.
;
; Format:
;   [section] ; section goes between []
;   param=value ; assign values to parameters

config_version=4

_global_script_classes=[  ]
_global_script_class_icons={

}

[application]

config/name="BetterSnake"
run/main_scene="res://Game.tscn"
config/icon="res://icon.png"

[autoload]

TreeUtilities="*res://Autoload/TreeUtilities.gd"
Rands="*res://Autoload/Rands.gd"

[input]

game_point_direction={
"deadzone": 0.5,
"events": [ Object(InputEventMouseButton,"resource_local_to_scene":false,"resource_name":"","device":0,"alt":false,"shift":false,"control":false,"meta":false,"command":false,"button_mask":0,"position":Vector2( 0, 0 ),"global_position":Vector2( 0, 0 ),"factor":1.0,"button_index":1,"pressed":false,"doubleclick":false,"script":null)
 ]
}
test={
"deadzone": 0.5,
"events": [ Object(InputEventKey,"resource_local_to_scene":false,"resource_name":"","device":0,"alt":false,"shift":false,"control":false,"meta":false,"command":false,"pressed":false,"scancode":81,"unicode":0,"echo":false,"script":null)
 ]
}

[rendering]

quality/filters/anisotropic_filter_level=8
environment/default_clear_color=Color( 0, 0, 0, 1 )
quality/filters/msaa=3
environment/default_environment="res://default_env.tres"
