[gd_scene load_steps=6 format=2]

[ext_resource path="res://GameObjects/Snake/Baloon.gd" type="Script" id=1]
[ext_resource path="res://Graphics/circle.png" type="Texture" id=2]
[ext_resource path="res://Light/roundLight.png" type="Texture" id=3]

[sub_resource type="GDScript" id=1]

script/source = "extends Sprite

# class member variables go here, for example:
# var a = 2
# var b = \"textvar\"

func _ready():
	# Called when the node is added to the scene for the first time.
	# Initialization here
	pass

#func _process(delta):
#	# Called every frame. Delta is time since last frame.
#	# Update game logic here.
#	pass
"

[sub_resource type="CircleShape2D" id=2]

custom_solver_bias = 0.0
radius = 16.0

[node name="Baloon" type="Area2D"]

input_pickable = true
gravity_vec = Vector2( 0, 1 )
gravity = 98.0
linear_damp = 0.1
angular_damp = 1.0
collision_layer = 2
collision_mask = 3
audio_bus_override = false
audio_bus_name = "Master"
script = ExtResource( 1 )
_sections_unfolded = [ "Collision", "Visibility" ]
maxDistance = 250
speed = 75.0
deactivationCooldown = 5.0

[node name="Sprite" type="Sprite" parent="." index="0"]

modulate = Color( 0.996078, 0.356863, 0.321569, 1 )
position = Vector2( 0, -4.76837e-07 )
scale = Vector2( 0.25, 0.25 )
texture = ExtResource( 2 )
script = SubResource( 1 )
_sections_unfolded = [ "Visibility" ]

[node name="CollisionShape2D" type="CollisionShape2D" parent="." index="1"]

visible = false
shape = SubResource( 2 )

[node name="Line2D" type="Line2D" parent="." index="2"]

z_index = -1
points = PoolVector2Array( 0, 0, 0, 0 )
width = 2.0
default_color = Color( 1, 1, 1, 1 )
texture_mode = -1082211219
sharp_limit = 2.0
round_precision = 8
_sections_unfolded = [ "Z Index" ]

[node name="Light2D" type="Light2D" parent="." index="3"]

enabled = true
editor_only = false
texture = ExtResource( 3 )
offset = Vector2( 0, 0 )
texture_scale = 1.0
color = Color( 0.886719, 0.263245, 0.263245, 1 )
energy = 1.5
mode = 0
range_height = 0.0
range_z_min = -1024
range_z_max = 1024
range_layer_min = -512
range_layer_max = 512
range_item_cull_mask = 1
shadow_enabled = false
shadow_color = Color( 0, 0, 0, 0 )
shadow_buffer_size = 2048
shadow_gradient_length = 0.0
shadow_filter = 0
shadow_filter_smooth = 0.0
shadow_item_cull_mask = 1
_sections_unfolded = [ "Range" ]


